﻿"Months in MonthStart","TTM U.S. Transportation Const. Work"
"01/2008","108819000000"
"02/2008","109443000000"
"03/2008","110296000000"
"04/2008","111078000000"
"05/2008","111436000000"
"06/2008","112215000000"
"07/2008","113539000000"
"08/2008","114239000000"
"09/2008","115403000000"
"10/2008","116229000000"
"11/2008","116575000000"
"12/2008","116829000000"
"01/2009","116909000000"
"02/2009","117000000000"
"03/2009","116757000000"
"04/2009","116577000000"
"05/2009","116516000000"
"06/2009","117095000000"
"07/2009","117684000000"
"08/2009","118293000000"
"09/2009","118836000000"
"10/2009","119031000000"
"11/2009","119041000000"
"12/2009","118866000000"
"01/2010","118668000000"
"02/2010","118495000000"
"03/2010","118834000000"
"04/2010","119309000000"
"05/2010","119981000000"
"06/2010","120225000000"
"07/2010","119384000000"
"08/2010","119390000000"
"09/2010","119788000000"
"10/2010","119981000000"
"11/2010","120460000000"
"12/2010","120873000000"
"01/2011","121008000000"
"02/2011","120840000000"
"03/2011","120443000000"
"04/2011","119496000000"
"05/2011","118460000000"
"06/2011","117523000000"
"07/2011","116770000000"
"08/2011","116146000000"
"09/2011","115103000000"
"10/2011","114317000000"
"11/2011","114133000000"
"12/2011","114056000000"
"01/2012","113977000000"
"02/2012","114233000000"
"03/2012","114083000000"
"04/2012","114533000000"
"05/2012","115703000000"
"06/2012","116890000000"
"07/2012","118068000000"
"08/2012","118766000000"
"09/2012","118486000000"
"10/2012","118918000000"
"11/2012","118722000000"
"12/2012","118410000000"
"01/2013","118667000000"
"02/2013","118632000000"
"03/2013","118603000000"
"04/2013","119084000000"
"05/2013","119072000000"
"06/2013","118696000000"
"07/2013","119150000000"
"08/2013","119383000000"
"09/2013","120116000000"
"10/2013","120418000000"
"11/2013","120483000000"
"12/2013","120820000000"
"01/2014","121026000000"
"02/2014","121203000000"
"03/2014","121783000000"
"04/2014","122092000000"
"05/2014","122597000000"
"06/2014","122655000000"
"07/2014","123037000000"
"08/2014","123248000000"
"09/2014","123724000000"
"10/2014","125039000000"
"11/2014","125955000000"
"12/2014","126781000000"
"01/2015","127296000000"
"02/2015","127707000000"
"03/2015","128243000000"
"04/2015","129106000000"
"05/2015","129749000000"
"06/2015","131490000000"
"07/2015","132705000000"
"08/2015","134215000000"
"09/2015","135569000000"
"10/2015","135919000000"
"11/2015","136153000000"
"12/2015","136814000000"
"01/2016","137285000000"
"02/2016","137819000000"
"03/2016","138465000000"
"04/2016","138228000000"
"05/2016","138068000000"
"06/2016","138133000000"
"07/2016","137631000000"
"08/2016","136813000000"
"09/2016","136392000000"
"10/2016","136334000000"
"11/2016","136925000000"
"12/2016","136532000000"
"01/2017","136038000000"
"02/2017","136054000000"
"03/2017","136137000000"
"04/2017","136255000000"
"05/2017","136845000000"
"06/2017","136353000000"
"07/2017","136346000000"
"08/2017","136394000000"
"09/2017","136064000000"
"10/2017","135946000000"
"11/2017","135843000000"
"12/2017","135765000000"
"01/2018","136244000000"
"02/2018","136359000000"
"03/2018","136318000000"
"04/2018","136785000000"
"05/2018","137269000000"
"06/2018","138114000000"
"07/2018","139364000000"
"08/2018","140917000000"
"09/2018","141701000000"
"10/2018","142017000000"
"11/2018","142315000000"
"12/2018","142548000000"
"01/2019","143418000000"
"02/2019","144475000000"
"03/2019","145385000000"
"04/2019","147269000000"
"05/2019","149047000000"
"06/2019","150227000000"
"07/2019","151084000000"
"08/2019","151225000000"
"09/2019","152145000000"
"10/2019","153045000000"
"11/2019","153514000000"
"12/2019","154215000000"
"01/2020","154565000000"
